Amount,Asset,Date_bought,Date_sold,Price_bought,Price_sold,purchased_on,held_on,sold_on,term,proceeds
# SELL
1856.0,ADA,03/23/2023,05/09/2023,687.8707198983064,679.46,None,None,changely,short,-8.41071989830641
3194.758527,ADA,03/23/2023,06/14/2023,1184.0414051016935,910.3544038689132,None,None,changely,short,-273.6870012327803
2804.241473,ADA,03/23/2023,06/14/2023,1039.307974775179,799.0755961310869,None,None,changely,short,-240.23237864409214
0.05715816,BTC,03/23/2023,12/27/2023,1599.99979,2468.538306207907,None,None,kraken,short,868.5385162079072
0.01526811,BTC,04/27/2023,12/27/2023,450.0,659.3969154779652,None,None,kraken,short,209.3969154779652
0.02457753,BTC,05/06/2023,12/27/2023,700.0,1061.4507933245932,None,None,kraken,short,361.4507933245932
0.07699617,BTC,06/14/2023,12/27/2023,2378.93,3325.2993986562215,None,None,kraken,short,946.3693986562216
1.54600003,BTC,12/26/2023,12/27/2023,66456.11744882073,66768.42458633332,None,None,kraken,short,312.30713751258736
0.60603122,ETH,06/14/2023,09/01/2023,1000.0,1396.3284709152813,None,None,changely,short,396.3284709152813
0.51886878,ETH,09/01/2023,09/01/2023,850.7390782684683,1195.5015290847186,None,None,changely,short,344.7624508162503
309.0099999999999,MATIC,04/27/2023,12/10/2023,304.4714885682975,278.9218971564999,None,None,kraken,short,-25.54959141179762
732.59,MATIC,05/06/2023,12/10/2023,660.24,661.2581878835,None,None,kraken,short,1.0181878834999907
2958.4,MATIC,06/14/2023,12/10/2023,2011.98,2670.3425149600002,None,None,kraken,short,658.3625149600002
1.13622,STETH,09/01/2023,12/10/2023,2591.83,2591.83,changely,changely,changely,short,0.0
# INTEREST
6995.94222179,ADA,12/31/2023,12/31/2023,0.0,4057.65,None,None,None,short,0.0
# AIRDROP
# TOTAL GAINS    short: 3550.65469456733 long: 0 unknown: 0
