Date,Operation,Asset,Amount,Price,Exchange
# Audit -- make total match what I hold
2023-1-1,BUY,BTC,0.02998854,1,audit
2023-1-1,BUY,XRP,93034.667628,1,audit
2023-1-1,BUY,ADA,8669.22005363,1,audit
2023-1-1,BUY,NEXO,15483.91593043,1,audit
2023-1-1,BUY,ETH,3.012315611,1,audit

# less BNB, but is staked -- .0003 every 7 days, or 10 cents a week
# was: 1.23
# is: 1.10941571
2023-4-10,INTEREST,BNB,.0042,1.45,binance.us
2023-4-10,SELL,BNB,0.12478429,41.13,binance.us
# airdrop flare (14k at value of ~$600) -- wrap half ????????????????
2023-3-14,AIRDROP,FLR,15235.35,639,metamask
# interest nexo
# is: NEXO 668.83441981
# was: NEXO 418.45935723
2023-3-31,INTEREST,NEXO,250.38,189,nexo
# interest yaroi
2023-2-15,INTEREST,ADA,3863.39,1545.2,yaroi
2023-4-10,INTEREST,ADA,708.22,283.4,yaroi
2023-4-7,SELL,ETH,3,5388.38,nexo
# sell all CRO
2023-4-10,SELL,CRO,5831.9813016000000516,404.41,crypto.com

# more Cardano tokens on dripdropz, but not worth much
#ada interest April-Dec
#ada -> djed
#sundae swap --> lp

2023-12-4,SELL,ADA,26770.509942,10798.84,nexo
2023-12-4,SELL,NEXO,6029.33525875,4928.71,nexo
2023-12-4,BUY,BTC,0.11290469,4928.71,changely.com

# 9/1/23
2023-09-1,SELL,ETH,0.51886878,850.7390782684683,assorted

# what if........
2023-12-11,SELL,XRP,81273,49036.36,coinbase
2023-12-11,BUY,BTC,1.15522068,49036.36,coinbase
## plan is to transfer to kraken, sell .98, buy 58k XRP (BTC->USD->XRP),  and transfer rest to ledger (.64BTC, sell rest)
#2023-12-11,SELL,BTC,2.284752115,1000,assorted
2023-12-11,SELL,BTC,2.2681295397595750813,96295.47,assorted
## plan is to hold on ledger
#2023-12-11,SELL,ADA,226000,1000,assorted
2023-12-11,SELL,ADA,226000,140120,assorted
