Amount,Asset,Date_bought,Date_sold,Price_bought,Price_sold,purchased_on,held_on,sold_on,term,proceeds
# SELL
740.902375,ADA,09/27/2021,12/04/2023,1740.2,298.8693984753905,None,None,nexo,long,-1441.3306015246096
9.0,ADA,10/06/2021,12/04/2023,116.48,3.6304710000133475,None,None,nexo,long,-112.84952899998666
7528.27479953,ADA,11/01/2021,12/04/2023,16370.54,3036.7981488694404,None,None,nexo,long,-13333.74185113056
10720.47523219,ADA,11/01/2021,12/04/2023,20836.63,4324.486048536351,None,None,nexo,long,-16512.14395146365
6959.67013183,ADA,11/11/2021,12/04/2023,14750.0,2807.4311759186544,None,None,nexo,long,-11942.568824081345
812.1874034499979,ADA,11/27/2021,12/04/2023,1276.586867578489,327.6247572001509,None,None,nexo,long,-948.9621103783381
17517.21820011,ADA,11/27/2021,12/11/2023,27533.36313242151,10860.6752840682,None,None,assorted,long,-16672.687848353307
1289.0,ADA,04/07/2022,12/11/2023,1367.05,799.18,None,None,assorted,long,-567.87
1068.0,ADA,04/07/2022,12/11/2023,1132.95,662.16,None,None,assorted,long,-470.7900000000001
0.01260426,ADA,04/28/2022,12/11/2023,500.0,0.0078146412,None,None,assorted,long,-499.9921853588
21210.0,ADA,05/09/2022,12/11/2023,13999.93,13150.2,None,None,assorted,long,-849.7299999999996
16939.0,ADA,05/12/2022,12/11/2023,7999.95,10502.18,None,None,assorted,long,2502.2300000000005
13055.0,ADA,05/14/2022,12/11/2023,6777.85,8094.1,None,None,assorted,long,1316.25
257.173095,ADA,05/16/2022,12/11/2023,154.3,159.4473189,None,None,assorted,long,5.147318899999988
4532.0,ADA,05/16/2022,12/11/2023,2469.41,2809.84,None,None,assorted,long,340.4300000000003
32339.0,ADA,05/20/2022,12/11/2023,16745.98,20050.18,None,None,assorted,long,3304.2000000000007
8918.0,ADA,06/04/2022,12/11/2023,5000.99,5529.16,None,None,assorted,long,528.1700000000001
10253.0,ADA,06/25/2022,12/11/2023,4992.98,6356.86,None,None,assorted,long,1363.88
30.852345,ADA,06/29/2022,12/11/2023,14.34,19.1284539,None,None,assorted,long,4.7884539
26.682211,ADA,07/04/2022,12/11/2023,12.27,16.54297082,None,None,assorted,long,4.272970820000001
27.118902,ADA,07/09/2022,12/11/2023,12.47,16.813719239999998,None,None,assorted,long,4.343719239999997
84802.0,ADA,09/18/2022,12/11/2023,38314.54,52577.24,None,None,assorted,long,14262.699999999997
892.663968,ADA,12/06/2022,12/11/2023,285.65,553.45166016,None,None,assorted,long,267.80166016
8669.22005363,ADA,01/01/2023,12/11/2023,1.0,5374.916433250601,None,None,assorted,short,5373.916433250601
3863.39,ADA,02/15/2023,12/11/2023,1545.2,2395.3017999999997,None,None,assorted,short,850.1017999999997
310.66862099996024,ADA,04/10/2023,12/11/2023,124.31657845215994,192.61454501997534,None,None,assorted,short,68.2979665678154
0.12478429,BNB,07/16/2020,04/10/2023,47.99395769230769,41.13,None,None,binance.us,long,-6.863957692307686
0.04418874,BTC,07/16/2020,12/11/2023,407.9029447845,1876.072513679644,None,None,assorted,long,1468.169568895144
0.17048458,BTC,07/16/2020,12/11/2023,1573.7303716365,7238.07545868514,None,None,assorted,long,5664.3450870486395
0.147,BTC,07/31/2020,12/11/2023,1667.96508375,6241.016591803877,None,None,assorted,long,4573.051508053877
0.15,BTC,08/18/2020,12/11/2023,1797.69375,6368.384277350896,None,None,assorted,long,4570.690527350896
0.045,BTC,10/10/2020,12/11/2023,512.25,1910.5152832052688,None,None,assorted,long,1398.2652832052688
0.193868,BTC,11/05/2020,12/11/2023,3080.0,8230.839487209758,None,None,assorted,long,5150.839487209758
0.042821879759575,BTC,11/05/2020,12/11/2023,655.2359779875,1818.0412385832533,None,None,assorted,long,1162.8052605957532
0.034,BTC,12/16/2020,12/11/2023,664.0,1443.5004361995366,None,None,assorted,long,779.5004361995366
0.13761,BTC,05/12/2022,12/11/2023,4500.0,5842.355736041713,None,None,assorted,long,1342.3557360417126
0.00504243,BTC,05/16/2022,12/11/2023,156.82,214.0808795442832,None,None,assorted,long,57.2608795442832
0.02998854,BTC,01/01/2023,12/11/2023,1.0,1273.1903109113896,None,None,assorted,short,1272.1903109113896
0.11290469,BTC,12/04/2023,12/11/2023,4928.71,4793.469684234513,None,None,assorted,short,-135.24031576548714
1.15522068,BTC,12/11/2023,12/11/2023,49036.36,49045.92810255074,None,None,assorted,short,9.568102550736512
4200.0,CRO,08/03/2020,04/10/2023,356.0,291.2427033217702,None,None,crypto.com,long,-64.7572966782298
372.8780026,CRO,08/15/2020,04/10/2023,62.65,25.85666606820144,None,None,crypto.com,long,-36.79333393179856
150.0,CRO,09/25/2020,04/10/2023,23.20000000000005,10.40152511863465,None,None,crypto.com,long,-12.798474881365399
1109.1032989999999,CRO,11/28/2020,04/10/2023,77.41922799999999,76.9091054913937,None,None,crypto.com,long,-0.5101225086062868
1.02542195,ETH,09/19/2022,04/07/2023,1400.0,1841.7877089803333,None,None,nexo,short,441.78770898033326
1.97457805,ETH,01/01/2023,04/07/2023,0.6555017152882259,3546.592291019667,None,None,nexo,short,3545.9367893043786
0.51886878,ETH,01/01/2023,09/01/2023,0.17224914218990184,850.7390782684683,None,None,assorted,short,850.5668291262784
719.12163529,NEXO,05/14/2022,12/04/2023,995.01,587.8495460882676,None,None,nexo,long,-407.16045391173236
719.12163529,NEXO,05/14/2022,12/04/2023,944.41,587.8495460882676,None,None,nexo,long,-356.56045391173234
205.74371611,NEXO,05/16/2022,12/04/2023,277.75,168.18622078725653,None,None,nexo,long,-109.56377921274347
1936.7,NEXO,05/20/2022,12/04/2023,2545.63,1583.1650169307313,None,None,nexo,long,-962.4649830692688
117.24980913,NEXO,07/20/2022,12/04/2023,82.07,95.84643778407677,None,None,nexo,long,13.776437784076776
2331.3984629300007,NEXO,01/01/2023,12/04/2023,0.15056904683576747,1905.8132323214002,None,None,nexo,short,1905.6626632745645
5000.0,XRP,08/18/2020,12/11/2023,1507.5,3016.768176393144,None,None,coinbase,long,1509.2681763931441
5000.0,XRP,09/02/2020,12/11/2023,1344.2,3016.768176393144,None,None,coinbase,long,1672.568176393144
5000.0,XRP,09/18/2020,12/11/2023,1272.05,3016.768176393144,None,None,coinbase,long,1744.7181763931442
12269.0,XRP,11/05/2020,12/11/2023,3067.0,7402.545751233497,None,None,coinbase,long,4335.545751233497
3545.0,XRP,11/05/2020,12/11/2023,874.54681994772,2138.8886370627392,None,None,coinbase,long,1264.3418171150192
8724.0,XRP,11/05/2020,12/11/2023,2152.199282714784,5263.657114170758,None,None,coinbase,long,3111.457831455974
6000.0,XRP,11/24/2020,12/11/2023,3939.040000000002,3620.1218116717732,None,None,coinbase,long,-318.91818832822855
1200.0,XRP,12/16/2020,12/11/2023,548.39,724.0243623343546,None,None,coinbase,long,175.6343623343546
6500.0,XRP,12/23/2020,12/11/2023,2188.35,3921.7986293110876,None,None,coinbase,long,1733.4486293110876
12000.0,XRP,12/26/2020,12/11/2023,3426.78,7240.2436233435465,None,None,coinbase,long,3813.4636233435463
14111.809613,XRP,12/27/2020,12/11/2023,4000.0,8514.411630363451,None,None,coinbase,long,4514.411630363451
1923.1903870000006,XRP,01/01/2021,12/11/2023,469.1313101746374,1160.3639113293634,None,None,coinbase,long,691.232601154726
# INTEREST
3863.39,ADA,02/15/2023,02/15/2023,0.0,1545.2,None,None,None,short,0.0
708.22,ADA,04/10/2023,04/10/2023,0.0,283.4,None,None,None,short,0.0
0.0042,BNB,04/10/2023,04/10/2023,0.0,1.45,None,None,None,short,0.0
250.38,NEXO,03/31/2023,03/31/2023,0.0,189.0,None,None,None,short,0.0
# AIRDROP
15235.35,FLR,03/14/2023,03/14/2023,0.0,639.0,None,None,None,short,0.0
# TOTAL GAINS    short: 14182.78828820061 long: 9022.30716502342 unknown: 0
