Date,Operation,Asset,Amount,Price,Exchange
# correction of cash on hand
2025-1-1,BUY,USDC,187.274121,187.274121,audit

2025-1-4,INTEREST,USDC,3.61,3.61,COINBASE

2025-1-7,SELL,NEXO,278.38716189,354.210679,changelly.com
2025-1-7,BUY,USDC,354.210679,354.210679,changelly.com

2025-1-8,SELL,USDC,585.2349,585.2349,COINBASE
2025-1-8,BUY,XRP,252.96897,585.2349,COINBASE

2025-1-11,SELL,XRP,252.12699357,327.4056,COINBASE
2025-1-11,BUY,BTC,0.00343383,325.79,COINBASE
2025-1-11,BUY,BTC,0.0000169,1.6,COINBASE

2025-1-15,SELL,DOGE,138.8,53.30441,COINBASE
2025-1-15,BUY,USDC,53.3,53.3,COINBASE
2025-1-15,SELL,FLR,1501,39.79,COINBASE
2025-1-15,BUY,USDC,39.79,39.79,COINBASE
2025-1-15,SELL,HBAR,336.3,110.7,COINBASE
2025-1-15,BUY,USDC,110.7,110.7,COINBASE

2025-1-18,SELL,BTC,.00345073,361.9,COINBASE
2025-1-18,BUY,USDC,361.9,361.9,COINBASE
2025-1-18,SELL,USDC,466.284,466.284,COINBASE
2025-1-18,BUY,XRP,141.395135,464.4,COINBASE
2025-1-18,BUY,USDC,1.87,1.87,COINBASE

2025-1-19,SELL,USDC,101.87,101.87,COINBASE
2025-1-19,BUY,XRP,32.764873,101.87,COINBASE

2025-2-3,BUY,USDC,1001.2,1001.2,COINBASE
2025-2-4,BUY,ADA,1678.52504442,1260.6049,COINBASE
2025-2-4,BUY,HBAR,6585.5,1680.75233,COINBASE
2025-2-4,BUY,XRP,1150.502318,2987.92,COINBASE
2025-2-4,BUY,BTC,.02274664,2240.98,COINBASE
2025-2-4,BUY,ETH,.9196184,2489.93,COINBASE
2025-2-4,BUY,USDC,11320.94,11320.94,COINBASE

2025-2-9,SELL,USDC,12022.14,12022.14,COINBASE
2025-2-9,BUY,BTC,.02087253,2014.36,COINBASE
2025-2-9,BUY,XRP,832.010692,2013.28,COINBASE
2025-2-9,BUY,SUI,653.3,2006.88,COINBASE
2025-2-9,BUY,ADA,2923.82210497,2022.51,COINBASE
2025-2-9,BUY,HBAR,8653.7,2021.87,COINBASE
2025-2-9,BUY,LINK,104.03,1953.1,COINBASE
2025-2-9,BUY,USDC,.96,.96,COINBASE

2025-2-11,INTEREST,MATIC,427.1303559,136.68,COINBASE
2025-2-11,INTEREST,ETH,0.000048999,0.13,COINBASE

#curl -X POST -d "filename=`pwd`/holding/transactions/2024_assets.csv&asset_type=have" http://127.0.0.1:5002/load/csv
#
#curl -X POST -d "filename=`pwd`/holding/transactions/2025.csv&asset_type=year" http://127.0.0.1:5002/load/csv
#
#curl -X GET http://127.0.0.1:5002/process
#
#curl -X POST -d "filename=`pwd`/holding/transactions/2025_assets.csv" http://127.0.0.1:5002/report/csv/asset
#curl -X POST -d "filename=`pwd`/holding/transactions/2025_assets.wiki" http://127.0.0.1:5002/report/wiki/asset
#curl -X POST -d "filename=`pwd`/holding/transactions/2025_assets.json" http://127.0.0.1:5002/report/json/asset
#
#curl -X POST -d "filename=`pwd`/holding/transactions/2025_tax.csv&year=2024" http://127.0.0.1:5002/report/csv/tax
#curl -X POST -d "filename=`pwd`/holding/transactions/2025_tax.wiki&year=2024" http://127.0.0.1:5002/report/wiki/tax
#curl -X POST -d "filename=`pwd`/holding/transactions/2025_tax.txf&year=2024" http://127.0.0.1:5002/report/txf/tax
#curl -X POST -d "filename=`pwd`/holding/transactions/2025_tax.json&year=2024" http://127.0.0.1:5002/report/json/tax
