Amount,Asset,Date_bought,Date_sold,Price_bought,Price_sold,purchased_on,held_on,sold_on,term,proceeds
# SELL
1.69e-05,BTC,01/11/2025,01/18/2025,1.6,1.7724104754646117,COINBASE,COINBASE,COINBASE,short,0.17241047546461163
0.00343383,BTC,01/11/2025,01/18/2025,325.79,360.1275895245354,COINBASE,COINBASE,COINBASE,short,34.33758952453536
138.8,DOGE,09/22/2021,01/15/2025,496.17856708777504,53.30441,None,None,COINBASE,long,-442.874157087775
1501.0,FLR,03/14/2023,01/15/2025,62.9548385826384,39.79,None,None,COINBASE,long,-23.164838582638403
336.3,HBAR,12/04/2024,01/15/2025,99.34502940249703,110.7,None,None,COINBASE,short,11.35497059750297
278.38716189,NEXO,04/02/2024,01/07/2025,390.4995566724931,354.210679,None,None,changelly.com,short,-36.28887767249307
40.72000000000003,USDC,12/01/2024,01/08/2025,40.72000000000003,40.72000000000003,None,None,COINBASE,short,0.0
187.274121,USDC,01/01/2025,01/08/2025,187.274121,187.274121,None,None,COINBASE,short,0.0
3.61,USDC,01/04/2025,01/08/2025,3.61,3.61,None,None,COINBASE,short,0.0
353.63077899999996,USDC,01/07/2025,01/08/2025,353.63077899999996,353.63077899999996,None,None,COINBASE,short,0.0
0.579900000000066,USDC,01/07/2025,01/18/2025,0.579900000000066,0.579900000000066,None,None,COINBASE,short,0.0
110.7,USDC,01/15/2025,01/18/2025,110.7,110.7,None,None,COINBASE,short,0.0
39.79,USDC,01/15/2025,01/18/2025,39.79,39.79,None,None,COINBASE,short,0.0
53.3,USDC,01/15/2025,01/18/2025,53.3,53.3,None,None,COINBASE,short,0.0
1.87,USDC,01/18/2025,01/18/2025,1.87,1.87,None,None,COINBASE,short,0.0
260.0440999999999,USDC,01/18/2025,01/18/2025,260.0440999999999,260.0440999999999,None,None,COINBASE,short,0.0
101.85590000000008,USDC,01/18/2025,01/19/2025,101.85590000000008,101.85590000000008,None,None,COINBASE,short,0.0
252.12699357,XRP,01/01/2022,01/11/2025,215.38835602246445,327.4056,None,None,COINBASE,long,112.01724397753554
# INTEREST
3.61,USDC,01/04/2025,01/04/2025,0.0,3.61,None,None,None,short,0.0
# AIRDROP
# TOTAL GAINS    short: 9.576092925009867 long: -354.0217516928779 unknown: 0
